Verilog-130-247/VerilogBM-130-247.vcd
$date
	Tue Nov  7 21:26:59 2017
$end
$version
	Icarus Verilog
$end
$timescale
	1s
$end
$scope module Verilog_130_247 $end
$var wire 4 ! count_digit_hundreds [0:3] $end
$var wire 4 " count_digit_ones [0:3] $end
$var wire 4 # count_digit_tens [0:3] $end
$var wire 4 $ count_digit_thousands [0:3] $end
$var wire 1 % entry_door $end
$var wire 1 & exit_door $end
$var wire 1 ' power $end
$var reg 1 ( down $end
$var reg 1 ) down_count $end
$var reg 1 * reset $end
$var reg 1 + up $end
$var reg 1 , up_count $end
$var reg 10 - upper_limit [0:9] $end
$scope module Main $end
$var wire 1 . clk $end
$var wire 4 / count_digit1 [0:3] $end
$var wire 4 0 count_digit2 [0:3] $end
$var wire 4 1 count_digit3 [0:3] $end
$var wire 4 2 count_digit4 [0:3] $end
$var wire 1 3 down_count $end
$var wire 1 % entry_door $end
$var wire 1 & exit_door $end
$var wire 10 4 out [0:9] $end
$var wire 1 ' power $end
$var wire 1 5 reset $end
$var wire 1 6 up_count $end
$var wire 10 7 upper_limit [0:9] $end
$scope module M1 $end
$var wire 1 . clk $end
$var wire 1 3 down_count $end
$var wire 1 5 reset $end
$var wire 1 6 up_count $end
$var wire 10 8 upper_limit [0:9] $end
$var reg 1 9 entry_door $end
$var reg 1 : exit_door $end
$var reg 10 ; out [0:9] $end
$var reg 1 < power $end
$upscope $end
$scope module M2 $end
$var wire 10 = bin [9:0] $end
$var reg 16 > bcd [15:0] $end
$var reg 4 ? count_digit1 [0:3] $end
$var reg 4 @ count_digit2 [0:3] $end
$var reg 4 A count_digit3 [0:3] $end
$var reg 4 B count_digit4 [0:3] $end
$var integer 32 C i [31:0] $end
$var integer 32 D j [31:0] $end
$var reg 26 E z [25:0] $end
$upscope $end
$upscope $end
$upscope $end
$scope module bcd_to_seven $end
$var wire 4 F A [0:3] $end
$var reg 7 G out [0:6] $end
$upscope $end
$enddefinitions $end
#0
$dumpvars
bx G
bz F
b0 E
b100 D
b111 C
b0 B
b0 A
b0 @
b0 ?
b0 >
b0 =
0<
b0 ;
0:
19
b10100 8
b10100 7
06
15
b0 4
03
b0 2
b0 1
b0 0
b0 /
z.
b10100 -
0,
x+
1*
0)
x(
0'
0&
1%
b0 $
b0 #
b0 "
b0 !
$end
#1
0(
1+
1)
13
#2
0)
03
#4
1,
16
#5
0,
06
0*
05
#7
b1 B
b1 "
b1 /
b1 >
b100 D
b10000000000 E
b111 C
1:
1&
1<
1'
b1 ;
b1 4
b1 =
1,
16
#8
0,
06
#10
b10 B
b10 "
b10 /
b10 >
b100 D
b100000000000 E
b111 C
b10 ;
b10 4
b10 =
1,
16
#11
0,
06
#13
b11 B
b11 "
b11 /
b11 >
b100 D
b110000000000 E
b111 C
b11 ;
b11 4
b11 =
1,
16
#14
0,
06
#16
b100 B
b100 "
b100 /
b100 >
b100 D
b1000000000000 E
b111 C
b100 ;
b100 4
b100 =
1,
16
#17
0,
06
#19
b101 B
b101 "
b101 /
b101 >
b100 D
b1010000000000 E
b111 C
b101 ;
b101 4
b101 =
1,
16
#20
0,
06
#22
b110 B
b110 "
b110 /
b110 >
b100 D
b1100000000000 E
b111 C
b110 ;
b110 4
b110 =
1,
16
#23
0,
06
#25
b111 B
b111 "
b111 /
b111 >
b100 D
b1110000000000 E
b111 C
b111 ;
b111 4
b111 =
1,
16
#26
0,
06
#28
b1000 B
b1000 "
b1000 /
b1000 >
b100 D
b10000000000000 E
b111 C
b1000 ;
b1000 4
b1000 =
1,
16
#29
0,
06
#31
b1001 B
b1001 "
b1001 /
b1001 >
b100 D
b10010000000000 E
b111 C
b1001 ;
b1001 4
b1001 =
1,
16
#32
0,
06
#34
b0 B
b0 "
b0 /
b1 A
b1 #
b1 0
b10000 >
b100 D
b100000000000000 E
b111 C
b1010 ;
b1010 4
b1010 =
1,
16
#35
0,
06
#37
b1 B
b1 "
b1 /
b10001 >
b100 D
b100010000000000 E
b111 C
b1011 ;
b1011 4
b1011 =
1,
16
#38
0,
06
#40
b10 B
b10 "
b10 /
b10010 >
b100 D
b100100000000000 E
b111 C
b1100 ;
b1100 4
b1100 =
1,
16
#41
0,
06
#43
b11 B
b11 "
b11 /
b10011 >
b100 D
b100110000000000 E
b111 C
b1101 ;
b1101 4
b1101 =
1,
16
#44
0,
06
#46
b100 B
b100 "
b100 /
b10100 >
b100 D
b101000000000000 E
b111 C
b1110 ;
b1110 4
b1110 =
1,
16
#47
0,
06
#49
b101 B
b101 "
b101 /
b10101 >
b100 D
b101010000000000 E
b111 C
b1111 ;
b1111 4
b1111 =
1,
16
#50
0,
06
#52
b110 B
b110 "
b110 /
b10110 >
b100 D
b101100000000000 E
b111 C
b10000 ;
b10000 4
b10000 =
1,
16
#53
0,
06
#55
b111 B
b111 "
b111 /
b10111 >
b100 D
b101110000000000 E
b111 C
b10001 ;
b10001 4
b10001 =
1,
16
#56
0,
06
#58
b1000 B
b1000 "
b1000 /
b11000 >
b100 D
b110000000000000 E
b111 C
b10010 ;
b10010 4
b10010 =
1,
16
#59
0,
06
#61
b1001 B
b1001 "
b1001 /
b11001 >
b100 D
b110010000000000 E
b111 C
b10011 ;
b10011 4
b10011 =
1,
16
#62
0,
06
#64
b0 B
b0 "
b0 /
b10 A
b10 #
b10 0
b100000 >
b100 D
b1000000000000000 E
b111 C
09
0%
b10100 ;
b10100 4
b10100 =
1,
16
#65
0,
06
#67
1,
16
#68
0,
06
#70
1,
16
#71
0,
06
#73
1,
16
#74
0,
06
#75
1(
0+
#76
b1001 B
b1001 "
b1001 /
b1 A
b1 #
b1 0
b11001 >
b100 D
b110010000000000 E
b111 C
19
1%
b10011 ;
b10011 4
b10011 =
1)
13
#77
0)
03
#79
b1000 B
b1000 "
b1000 /
b11000 >
b100 D
b110000000000000 E
b111 C
b10010 ;
b10010 4
b10010 =
1)
13
#80
0)
03
#82
b111 B
b111 "
b111 /
b10111 >
b100 D
b101110000000000 E
b111 C
b10001 ;
b10001 4
b10001 =
1)
13
#83
0)
03
#85
b110 B
b110 "
b110 /
b10110 >
b100 D
b101100000000000 E
b111 C
b10000 ;
b10000 4
b10000 =
1)
13
#86
0)
03
#88
b101 B
b101 "
b101 /
b10101 >
b100 D
b101010000000000 E
b111 C
b1111 ;
b1111 4
b1111 =
1)
13
#89
0)
03
#91
b100 B
b100 "
b100 /
b10100 >
b100 D
b101000000000000 E
b111 C
b1110 ;
b1110 4
b1110 =
1)
13
#92
0)
03
#94
b11 B
b11 "
b11 /
b10011 >
b100 D
b100110000000000 E
b111 C
b1101 ;
b1101 4
b1101 =
1)
13
#95
0)
03
#97
b10 B
b10 "
b10 /
b10010 >
b100 D
b100100000000000 E
b111 C
b1100 ;
b1100 4
b1100 =
1)
13
#98
0)
03
#100
b1 B
b1 "
b1 /
b10001 >
b100 D
b100010000000000 E
b111 C
b1011 ;
b1011 4
b1011 =
1)
13
#101
0)
03
#103
b0 B
b0 "
b0 /
b10000 >
b100 D
b100000000000000 E
b111 C
b1010 ;
b1010 4
b1010 =
1)
13
#104
0)
03
#106
b1001 B
b1001 "
b1001 /
b0 A
b0 #
b0 0
b1001 >
b100 D
b10010000000000 E
b111 C
b1001 ;
b1001 4
b1001 =
1)
13
#107
0)
03
#109
b1000 B
b1000 "
b1000 /
b1000 >
b100 D
b10000000000000 E
b111 C
b1000 ;
b1000 4
b1000 =
1)
13
#110
0)
03
#112
b111 B
b111 "
b111 /
b111 >
b100 D
b1110000000000 E
b111 C
b111 ;
b111 4
b111 =
1)
13
#113
0)
03
#115
b110 B
b110 "
b110 /
b110 >
b100 D
b1100000000000 E
b111 C
b110 ;
b110 4
b110 =
1)
13
#116
0)
03
#118
b101 B
b101 "
b101 /
b101 >
b100 D
b1010000000000 E
b111 C
b101 ;
b101 4
b101 =
1)
13
#119
0)
03
#121
b100 B
b100 "
b100 /
b100 >
b100 D
b1000000000000 E
b111 C
b100 ;
b100 4
b100 =
1)
13
#122
0)
03
#124
b11 B
b11 "
b11 /
b11 >
b100 D
b110000000000 E
b111 C
b11 ;
b11 4
b11 =
1)
13
#125
0)
03
#127
b10 B
b10 "
b10 /
b10 >
b100 D
b100000000000 E
b111 C
b10 ;
b10 4
b10 =
1)
13
#128
0)
03
#130
b1 B
b1 "
b1 /
b1 >
b100 D
b10000000000 E
b111 C
b1 ;
b1 4
b1 =
1)
13
#131
0)
03
#133
b0 B
b0 "
b0 /
b0 >
b100 D
b0 E
b111 C
0:
0&
0<
0'
b0 ;
b0 4
b0 =
1)
13
#134
0)
03
